valr: Genome interval arithmetic in R
…
read_bedgraph(system.file('extdata', 'test.bg.gz', package = 'valr'))
#> # A tibble: 4 × 4
#>   chrom    start      end value
#>   <chr>    <int>    <int> <dbl>
#> 1 chr19 49302000 49302300 -1.00
#> 2 chr19 49302300 49302600 -0.75
#> 3 chr19 49302600 49302900 -0.50
#> 4 chr19 49302900 49303200 -0.25

VCF files

read_vcf() reads VCF files and assigns chrom, start and end columns to be used to downstream interval comparisons. Note the interval size is calculated as the length of the REF field in the original file.

read_vcf(system.file('extdata', 'test.vcf.gz', package = 'valr'))
#> # A tibble: 115 × 201
#>    CHROM   POS    ID                                          REF
#>    <int> <int> <chr>                                        <chr>
#> 1      1 10172     .                                       CCCTAA
#> 2      1 10390     . CCCCTAACCCCTAACCCTAACCCTAACCCTAACCCTAACCCTAA
#> 3      1 10397     .                                CCCCTAACCCTAA
#> 4      1 10403     .       ACCCTAACCCTAACCCTAACCCTAACCCTAACCCTAAC
#> 5      1 10409     .             ACCCTAACCCTAACCCTAACCCTAACCCTAAC
#> 6      1 10415     .                   ACCCTAACCCTAACCCTAACCCTAAC
#> 7      1 10421     .                         ACCCTAACCCTAACCCTAAC
#> 8      1 10428     .                                       CCCTAA
#> 9      1 10440     .                                            C
#> 10     1 10478     .                                            C
#> # ... with 105 more rows, and 197 more variables: ALT <chr>, QUAL <dbl>,
#> #   FILTER <chr>, INFO <chr>, FORMAT <chr>, `101976-101976` <chr>,
#> #   `100920-100920` <chr>, `100231-100231` <chr>, `100232-100232` <chr>,
#> #   `100919-100919` <chr>, `101977-101977` <chr>, `100630-100630` <chr>,
#> #   `100640-100640` <chr>, `100631-100631` <chr>, `101583-101583` <chr>,
#> #   `101584-101584` <chr>, `101732-101732` <chr>, `101016-101016` <chr>,
#> #   `101708-101708` <chr>, `101730-101730` <chr>, `101582-101582` <chr>,
#> #   `101731-101731` <chr>, `101809-101809` <chr>, `101653-101653` <chr>,
#> #   `101652-101652` <chr>, `101806-101806` <chr>, `101807-101807` <chr>,
…
bed_slop(): Expand the size of input intervals

bed_shift(): Shift the coordinates of an input set, bounded by a genome

Sort

bed_sort orders intervals based on a specification. is_sorted asks whether a tbl is already sorted.

x <- bed_random(genome)
is_sorted(x)
#> [1] FALSE

y <- bed_sort(x)
y
#> # A tibble: 1,000,000 × 3
#>    chrom start   end
#>    <chr> <int> <int>
#> 1   chr1    67  1067
#> 2   chr1  2556  3556
#> 3   chr1  5112  6112
#> 4   chr1  5962  6962
#> 5   chr1 11953 12953
#> 6   chr1 15314 16314
#> 7   chr1 18208 19208
#> 8   chr1 19963 20963
#> 9   chr1 25191 26191
#> 10  chr1 27998 28998
#> # ... with 999,990 more rows

is_sorted(y)
#> [1] TRUE

Cluster

bed_cluster identifies clustered intervals based on a distance specification and assigns them a unique .id.

x <- bed_random(genome)
y <- bed_cluster(x, max_dist = 1000)
y
#> # A tibble: 1,000,000 × 4
#>    chrom     start       end   .id
#>    <chr>     <int>     <int> <int>
#> 1  chr15  28562795  28563795  9191
#> 2  chr17  72786610  72787610 23616
#> 3   chr4 177829924 177830924 57480
#> 4   chr3  92465833  92466833 29829
#> 5   chr2 197298572 197299572 63933
#> 6  chr11  47638954  47639954 15139
#> 7   chr4 102871094 102872094 33159
#> 8   chr5  99446335  99447335 32395
#> 9  chr15  62850369  62851369 20207
#> 10  chr1  22035869  22036869  7039
#> # ... with 999,990 more rows

Complement

bed_complement identifies intervals in a genome that are not covered by an input.

x <- bed_random(genome)

bed_complement(x, genome)
#> # A tibble: 723,439 × 3
#>     chrom start   end
#>    <fctr> <int> <int>
#> 1    chr1     1  1995
#> 2    chr1  3574  5752
#> 3    chr1  6752  7414
#> 4    chr1  9964 16437
#> 5    chr1 17637 20780
#> 6    chr1 21780 24767
#> 7    chr1 25767 32421
#> 8    chr1 33421 36333
#> 9    chr1 37333 39165
#> 10   chr1 40165 40950
#> # ... with 723,429 more rows

Merge

bed_merge identifies overlapping intervals and reports new merged ones. is_merged asks whether a tbl is already merged. Values from merged intervals can be reported using name / value pairs.

n <- 1e6
x <- bed_random(genome, n = n)
is_merged(x)
#> [1] FALSE

# add some signal
x <- x %>% mutate(signal = runif(n))

bed_merge(x, maxs = max(signal))
#> # A tibble: 723,506 × 4
#>    chrom start   end      maxs
#>    <chr> <int> <int>     <dbl>
#> 1   chr1  2947  3947 0.5971846
#> 2   chr1  7065  8065 0.4428205
#> 3   chr1  8330  9330 0.3206884
#> 4   chr1  9604 10604 0.1450251
#> 5   chr1 11456 12456 0.6171433
#> 6   chr1 13167 14229 0.8374596
#> 7   chr1 14543 16266 0.9136021
#> 8   chr1 20375 21375 0.9319875
#> 9   chr1 22472 23472 0.5033169
#> 10  chr1 23571 24932 0.6854593
#> # ... with 723,496 more rows

Flank

bed_flank creates new intervals that flank – but do not contain – the input intervals.

bed_flank(x, genome, both  = 100)
#> # A tibble: 1,999,999 × 4
#>    chrom start   end    signal
#>    <chr> <dbl> <dbl>     <dbl>
#> 1   chr1  2847  2947 0.5971846
#> 2   chr1  3947  4047 0.5971846
#> 3   chr1  6965  7065 0.4428205
#> 4   chr1  8065  8165 0.4428205
#> 5   chr1  8230  8330 0.3206884
#> 6   chr1  9330  9430 0.3206884
#> 7   chr1  9504  9604 0.1450251
#> 8   chr1 10604 10704 0.1450251
#> 9   chr1 11356 11456 0.6171433
#> 10  chr1 12456 12556 0.6171433
#> # ... with 1,999,989 more rows

Slop

bed_slop pads input intervals based on a specification

bed_slop(x, genome, both = 100)

Shift

bed_shift adjusts coordinates toward start or end by a defined size. Intervals created out of bounds are removed, or trimmed.

bed_shift(x, genome, size = 100)
#> # A tibble: 999,999 × 4
#>    chrom     start       end     signal
#>    <chr>     <dbl>     <dbl>      <dbl>
#> 1   chr5  16594969  16595969 0.46639350
#> 2   chr8  29550699  29551699 0.49777739
#> 3   chr1 186085365 186086365 0.28976724
#> 4   chr1 218149500 218150500 0.73288199
#> 5   chr5  14521155  14522155 0.77252151
#> 6   chr9 105125989 105126989 0.87460066
#> 7   chr4  90861973  90862973 0.17494063
#> 8   chrX  60929860  60930860 0.03424133
#> 9  chr18   3232799   3233799 0.32038573
#> 10  chr2 189515404 189516404 0.40232824
#> # ... with 999,989 more rows

Interval spacing

Interval spacing is easily computed using dplyr. Overlapping intervals must first be merged. Spacing for the first interval of each chromosome is undefined.

x <- bed_random(genome)
x <- bed_merge(x)

x %>%
  group_by(chrom) %>%
  mutate(.spacing = start - lag(end))
#> Source: local data frame [723,578 x 4]
#> Groups: chrom [25]
#> 
#>    chrom start   end .spacing
#>    <chr> <int> <int>    <int>
#> 1   chr1  3450  4450       NA
#> 2   chr1  8126  9126     3676
#> 3   chr1 10287 11604     1161
#> 4   chr1 14955 15955     3351
#> 5   chr1 18765 19765     2810
#> 6   chr1 20453 21453      688
#> 7   chr1 26866 27866     5413
#> 8   chr1 28173 29173      307
#> 9   chr1 30827 31827     1654
#> 10  chr1 36188 37188     4361
#> # ... with 723,568 more rows
…
bed_window(): Find overlapping intervals within a window

bed_closest(): find the closest intervals independent of overlaps

Intersection

bed_intersect is implemented using an interval tree in Rcpp. Column names in the result have .x and .y suffixes, and an .overlap column contains the size of the intersection (values of 0 indicate book-ended, or touching intervals). See the benchmarks section for timing. Though bed_intersect is pretty fast already, we intend to further improve upon this by parallization with RcppParallel.

# intersect two sets of 1e6 intervals from hg19
x <- bed_random(genome)
y <- bed_random(genome)

bed_intersect(x, y)
#> # A tibble: 647,112 × 6
#>    chrom start.x end.x start.y end.y .overlap
#>    <chr>   <int> <int>   <int> <int>    <int>
#> 1   chr1   11286 12286   11227 12227      941
#> 2   chr1   11286 12286   11534 12534      752
#> 3   chr1   39049 40049   39329 40329      720
#> 4   chr1   39049 40049   39357 40357      692
#> 5   chr1   40058 41058   39329 40329      271
#> 6   chr1   40058 41058   39357 40357      299
#> 7   chr1   60180 61180   59205 60205       25
#> 8   chr1   60180 61180   59221 60221       41
#> 9   chr1   63631 64631   63110 64110      479
#> 10  chr1   97011 98011   96825 97825      814
#> # ... with 647,102 more rows

# A records with no overlaps (i.e., `-v`)
bed_intersect(x, y, invert = TRUE)
#> Source: local data frame [523,587 x 3]
#> Groups: chrom [25]
#> 
#>    chrom    start      end
#>    <chr>    <int>    <int>
#> 1   chrY 59366979 59367979
#> 2   chrY 59337389 59338389
#> 3   chrY 59333375 59334375
#> 4   chrY 59317052 59318052
#> 5   chrY 59305607 59306607
#> 6   chrY 59290521 59291521
#> 7   chrY 59277265 59278265
#> 8   chrY 59252221 59253221
#> 9   chrY 59247513 59248513
#> 10  chrY 59247031 59248031
#> # ... with 523,577 more rows

One can achieve behaviour similar to BEDtools by combining bed_intersect with dplyr tools.

# `x` records with overlaps (i.e., `-wa`)
bed_intersect(x, y) %>% select(chrom, start = start.x, end = end.x)
#> # A tibble: 647,112 × 3
#>    chrom start   end
#>    <chr> <int> <int>
#> 1   chr1 11286 12286
#> 2   chr1 11286 12286
#> 3   chr1 39049 40049
#> 4   chr1 39049 40049
#> 5   chr1 40058 41058
#> 6   chr1 40058 41058
#> 7   chr1 60180 61180
#> 8   chr1 60180 61180
#> 9   chr1 63631 64631
#> 10  chr1 97011 98011
#> # ... with 647,102 more rows

# `y` records with overlaps (i.e., `-wb`)
bed_intersect(x, y) %>% select(chrom, start = start.y, end = end.y)
#> # A tibble: 647,112 × 3
#>    chrom start   end
#>    <chr> <int> <int>
#> 1   chr1 11227 12227
#> 2   chr1 11534 12534
#> 3   chr1 39329 40329
#> 4   chr1 39357 40357
#> 5   chr1 39329 40329
#> 6   chr1 39357 40357
#> 7   chr1 59205 60205
#> 8   chr1 59221 60221
#> 9   chr1 63110 64110
#> 10  chr1 96825 97825
#> # ... with 647,102 more rows

# Unique records in `x` (i.e., `-u`)
bed_intersect(x, y) %>% select(chrom, start = start.x, end = end.x) %>% unique()
#> # A tibble: 476,348 × 3
#>    chrom  start    end
#>    <chr>  <int>  <int>
#> 1   chr1  11286  12286
#> 2   chr1  39049  40049
#> 3   chr1  40058  41058
#> 4   chr1  60180  61180
#> 5   chr1  63631  64631
#> 6   chr1  97011  98011
#> 7   chr1 102017 103017
#> 8   chr1 103140 104140
#> 9   chr1 107933 108933
#> 10  chr1 108645 109645
#> # ... with 476,338 more rows

# Count `y` intervals that intersect each `x` interval
bed_intersect(x, y) %>% group_by(chrom, start.x, end.x) %>% summarize(count = n())
#> Source: local data frame [476,348 x 4]
#> Groups: chrom, start.x [?]
#> 
#>    chrom start.x  end.x count
#>    <chr>   <int>  <int> <int>
#> 1   chr1   11286  12286     2
#> 2   chr1   39049  40049     2
#> 3   chr1   40058  41058     2
#> 4   chr1   60180  61180     2
#> 5   chr1   63631  64631     1
#> 6   chr1   97011  98011     2
#> 7   chr1  102017 103017     2
#> 8   chr1  103140 104140     1
#> 9   chr1  107933 108933     2
#> 10  chr1  108645 109645     1
#> # ... with 476,338 more rows

Map

bed_map maps signals onto intervals. Summary statistics for mapped signals can be specific using NSE with name / value pairs.

bedfile <- system.file('extdata', 'genes.hg19.chr22.bed.gz', package = 'valr')
bgfile  <- system.file('extdata', 'hela.h3k4.chip.bg.gz', package = 'valr')

x <- read_bed(bedfile, n_fields = 6)
y <- read_bedgraph(bgfile)

bed_map(x, y, means = mean(value.y), sds = sd(value.y))
#> # A tibble: 591 × 5
#>    chrom  start.x    end.x    means       sds
#>    <chr>    <int>    <int>    <dbl>     <dbl>
#> 1  chr22 16150259 16193004 7.914286 7.5707309
#> 2  chr22 16162065 16172265 1.000000        NA
#> 3  chr22 16256331 16287937 1.000000 0.0000000
#> 4  chr22 17071647 17073700 1.000000 0.0000000
#> 5  chr22 17082800 17129720 1.117647 0.3270350
#> 6  chr22 17134598 17156430 1.294118 0.5878675
#> 7  chr22 17227758 17229328 1.000000        NA
#> 8  chr22 17264305 17302584 1.250000 0.5084039
#> 9  chr22 17308363 17310225 1.333333 0.5773503
#> 10 chr22 17385314 17385395 1.000000        NA
#> # ... with 581 more rows

Subtract

bed_substract() removes x intervals that intersect with y.

x <- bed_random(genome)
y <- bed_random(genome)

bed_subtract(x, y)
#> # A tibble: 722,786 × 3
#>     chrom start   end
#>    <fctr> <int> <int>
#> 1    chr1   214   649
#> 2    chr1  7150  7496
#> 3    chr1  8783 10135
#> 4    chr1 10714 11714
#> 5    chr1 17089 17319
#> 6    chr1 21953 22953
#> 7    chr1 25436 26436
#> 8    chr1 26818 27818
#> 9    chr1 28162 29162
#> 10   chr1 31952 32535
#> # ... with 722,776 more rows
…
Closest

bed_closest() identifies y intervals that are closest to x.

x <- bed_random(genome, n = 100)
y <- bed_random(genome, n = 100)

bed_closest(x, y)
#> # A tibble: 100 × 7
#>    chrom   start.x     end.x   start.y     end.y .overlap .distance
#>    <chr>     <int>     <int>     <int>     <int>    <int>     <int>
#> 1   chr1  69226270  69227270  84958397  84959397        0  15731127
#> 2   chr1 136064461 136065461 149230830 149231830        0  13165369
#> 3   chr1 137039233 137040233 149230830 149231830        0  12190597
#> 4   chr1 186407828 186408828 193230588 193231588        0   6821760
#> 5   chr1 205908686 205909686 208083506 208084506        0   2173820
#> 6   chr1 238184687 238185687 213265325 213266325        0 -24918362
#> 7  chr10    229041    230041   2424084   2425084        0   2194043
#> 8  chr10 126188779 126189779 123816371 123817371        0  -2371408
#> 9  chr10 128373549 128374549 123816371 123817371        0  -4556178
#> 10 chr11  28526613  28527613  34586206  34587206        0   6058593
#> # ... with 90 more rows
…
valr provides methods for creating new random intervals or permutations of existing intervals:

bed_random generates random intervals from an input genome.

bed_shuffle shuffles coordinates given a set of input intervals.

Random sampling of input intervals is done with dplyr.

Random

bed_random generates random intervals from an input genome. The numbers of intervals from each chrom are proporitional to each chrom size.

x <- bed_random(genome, n = 1e6, length = 1e3)
x
#> # A tibble: 1,000,000 × 3
#>    chrom     start       end
#>    <chr>     <int>     <int>
#> 1  chr13    133317    134317
#> 2   chr5 146742237 146743237
#> 3   chrY   2867981   2868981
#> 4  chr13   1948140   1949140
#> 5   chr1 140176126 140177126
#> 6  chr10  83069014  83070014
#> 7   chr3 191524299 191525299
#> 8  chr17  67751740  67752740
#> 9   chr1  52963225  52964225
#> 10  chr2 189475195 189476195
#> # ... with 999,990 more rows

# numbers of sampled intervals are proportional to chrom size
group_by(x, chrom) %>% summarize(n = n()) %>% arrange(desc(n))
#> # A tibble: 25 × 2
#>    chrom     n
#>    <chr> <int>
#> 1   chr1 80173
#> 2   chr2 78649
#> 3   chr3 64310
#> 4   chr4 61647
#> 5   chr5 58144
#> 6   chr6 55427
#> 7   chr7 51551
#> 8   chrX 49973
#> 9   chr8 47014
#> 10  chr9 45482
#> # ... with 15 more rows

Sample

Sampling can be done using dplyr:

x <- bed_random(genome)

# sample by number
sample_n(x, 1e3, replace = FALSE)
#> # A tibble: 1,000 × 3
#>    chrom     start       end
#>    <chr>     <int>     <int>
#> 1   chr1  55148012  55149012
#> 2  chr17   3893838   3894838
#> 3  chr17  65875979  65876979
#> 4   chr5  46816851  46817851
#> 5   chr9  93694268  93695268
#> 6   chr8 129140992 129141992
#> 7   chr2 135287753 135288753
#> 8   chr4 155382633 155383633
#> 9   chr6  81758356  81759356
#> 10  chr9  86842771  86843771
#> # ... with 990 more rows

# or fraction
sample_frac(x, 0.1, replace = FALSE)
#> # A tibble: 100,000 × 3
#>    chrom     start       end
#>    <chr>     <int>     <int>
#> 1  chr15  36017878  36018878
#> 2  chr16  37901199  37902199
#> 3   chr6 167454704 167455704
#> 4  chr21  17973802  17974802
#> 5  chr18  23277813  23278813
#> 6  chr17  23001295  23002295
#> 7   chr6  87550464  87551464
#> 8   chr3 111463738 111464738
#> 9   chr4  84282050  84283050
#> 10  chr6 155827052 155828052
#> # ... with 99,990 more rows

# or sample intervals within groups
group_by(x, chrom) %>% sample_n(1)
#> Source: local data frame [25 x 3]
#> Groups: chrom [25]
#> 
#>    chrom     start       end
#>    <chr>     <int>     <int>
#> 1   chr1 206265345 206266345
#> 2  chr10 131836587 131837587
#> 3  chr11  41509023  41510023
#> 4  chr12  34377704  34378704
#> 5  chr13  22974007  22975007
#> 6  chr14  55362125  55363125
#> 7  chr15  99403504  99404504
#> 8  chr16  57827073  57828073
#> 9  chr17  37833267  37834267
#> 10 chr18  19672782  19673782
#> # ... with 15 more rows
…
all(x$end - x$start == y$end - y$start)

Other topics

Grouping related intervals

The group_by operation from dplyr serves a similar purpose to BEDtools groupby, and can be combined with dplyr::summarize to calculate summary statistics from groups.

x <- bed_random(genome)
y <- bed_random(genome)

bed_intersect(x, y) %>%
  group_by(chrom) %>%
  summarize(overlap.total = sum(.overlap))
#> # A tibble: 25 × 2
#>    chrom overlap.total
#>    <chr>         <int>
#> 1   chr1      26101908
#> 2  chr10      13962398
#> 3  chr11      14089075
#> 4  chr12      14042289
#> 5  chr13      11941402
#> 6  chr14      11128674
#> 7  chr15      10796956
#> 8  chr16       9569943
#> 9  chr17       8261750
#> 10 chr18       8041223
#> # ... with 15 more rows
…
Absolute distance

bed_absdist() - XXX

Relative distance

bed_reldist() computes the relative distance between a query interval and the two closest reference intervals. The relative distance can range between [0,0.5]. If the overall distribution of distances is biased toward zero, then the query and reference intervals tend to be closer in space (17). By default a summary with the frequency of each relative distance is reported.

x <- bed_random(genome)
y <- bed_random(genome)

bed_reldist(x, y)
#> # A tibble: 51 × 4
#>    reldist counts  total       freq
#>      <dbl>  <int>  <int>      <dbl>
#> 1     0.00  20049 999948 0.02005004
#> 2     0.01  20212 999948 0.02021305
#> 3     0.02  20127 999948 0.02012805
#> 4     0.03  20250 999948 0.02025105
#> 5     0.04  19919 999948 0.01992004
#> 6     0.05  19838 999948 0.01983903
#> 7     0.06  19793 999948 0.01979403
#> 8     0.07  20060 999948 0.02006104
#> 9     0.08  20043 999948 0.02004404
#> 10    0.09  20010 999948 0.02001104
#> # ... with 41 more rows
…
