…
snps <- read_bed(valr_example('hg19.snps147.chr22.bed.gz'), n_fields = 6)
genes <- read_bed(valr_example('genes.hg19.chr22.bed.gz'), n_fields = 6)

# find snps in intergenic regions
intergenic <- bed_subtract(snps, genes)
# distance from intergenic snps to nearest gene
nearby <- bed_closest(intergenic, genes)

nearby %>%
  select(starts_with('name'), .overlap, .distance) %>%
  filter(abs(.distance) < 1000)
#> # A tibble: 285 × 4
#>         name.x            name.y .overlap .distance
#>          <chr>             <chr>    <int>     <int>
#> 1    rs2261631             P704P        0      -267
#> 2  rs570770556             POTEH        0      -912
#> 3  rs538163832             POTEH        0      -952
#> 4    rs9606135            TPTEP1        0      -421
#> 5   rs11912392 ANKRD62P1-PARP4P3        0       104
#> 6    rs8136454          BC038197        0       355
#> 7    rs5992556              XKR3        0      -455
#> 8  rs114101676              GAB4        0       473
#> 9   rs62236167             CECR7        0       261
#> 10   rs5747023             CECR1        0      -386
#> # ... with 275 more rows
```
…
# 1000 bp up and downstream
region_size <- 1000
# 50 bp windows
win_size <- 50

# add slop to the TSS, break into windows and add a group
x <- tss %>%
  bed_slop(genome, both = region_size) %>%
  bed_makewindows(genome, win_size)

x
#> # A tibble: 13,530 × 7
#>    chrom    start      end      name score strand .win_id
#>    <chr>    <dbl>    <dbl>     <chr> <chr>  <chr>   <dbl>
#> 1  chr22 16161065 16161115 LINC00516     3      +       1
#> 2  chr22 16161115 16161165 LINC00516     3      +       2
#> 3  chr22 16161165 16161215 LINC00516     3      +       3
#> 4  chr22 16161215 16161265 LINC00516     3      +       4
#> 5  chr22 16161265 16161315 LINC00516     3      +       5
#> 6  chr22 16161315 16161365 LINC00516     3      +       6
#> 7  chr22 16161365 16161415 LINC00516     3      +       7
#> 8  chr22 16161415 16161465 LINC00516     3      +       8
#> 9  chr22 16161465 16161515 LINC00516     3      +       9
#> 10 chr22 16161515 16161565 LINC00516     3      +      10
#> # ... with 13,520 more rows
```
…
shuffle_intervals <- function(n, .data, genome) {
  replicate(n, bed_shuffle(.data, genome), simplify = FALSE) %>%
    bind_rows(.id = 'rep') %>%
    group_by(rep) %>% nest()
}

shuffled <- shuffle_intervals(n = 100, repeats, genome) %>%
  mutate(jaccard = data %>%
           map(bed_jaccard, repeats) %>%
           map_dbl("jaccard"))
#> Warning in bind_rows_(x, .id): Unequal factor levels: coercing to character
  
shuffled
#> # A tibble: 100 × 3
#>      rep                  data      jaccard
#>    <chr>                <list>        <dbl>
#> 1      1 <tibble [10,000 × 6]> 0.0004898157
#> 2      2 <tibble [10,000 × 6]> 0.0004848573
#> 3      3 <tibble [10,000 × 6]> 0.0005782484
#> 4      4 <tibble [10,000 × 6]> 0.0002035498
#> 5      5 <tibble [10,000 × 6]> 0.0004063562
#> 6      6 <tibble [10,000 × 6]> 0.0003757854
#> 7      7 <tibble [10,000 × 6]> 0.0002640526
#> 8      8 <tibble [10,000 × 6]> 0.0004001592
#> 9      9 <tibble [10,000 × 6]> 0.0002334906
#> 10    10 <tibble [10,000 × 6]> 0.0004652309
#> # ... with 90 more rows
```
…
