…
``` r
genome <- read_genome(valr_example("hg19.chrom.sizes.gz"))

x <- bed_random(genome, seed = 1010486)
y <- bed_random(genome, seed = 9203911)

bed_projection(x, y, genome)
#> # A tibble: 1 × 4
#>   chrom         p.value obs_exp_ratio lower_tail
#>   <chr>           <dbl>         <dbl> <chr>     
#> 1 whole_genome 0.000739          1.01 FALSE     

bed_projection(x, y, genome, by_chrom = TRUE)
#> # A tibble: 24 × 4
#>    chrom p.value obs_exp_ratio lower_tail
#>    <chr>   <dbl>         <dbl> <chr>     
#>  1 chr1   0.175          1.01  FALSE     
#>  2 chr10  0.0200         1.02  FALSE     
#>  3 chr11  0.111          1.01  FALSE     
#>  4 chr12  0.478          1.00  FALSE     
#>  5 chr13  0.241          1.01  FALSE     
#>  6 chr14  0.123          0.990 TRUE      
#>  7 chr15  0.338          1.00  FALSE     
#>  8 chr16  0.211          1.01  FALSE     
#>  9 chr17  0.171          0.990 TRUE      
#> 10 chr18  0.0272         1.02  FALSE     
#> # ℹ 14 more rows
```
