Compute absolute distances between intervals. — bed_absdist • valr
…
Other interval statistics: 
bed_fisher(),
bed_jaccard(),
bed_projection(),
bed_reldist()

    Examples

genome <- read_genome(valr_example('hg19.chrom.sizes.gz'))

x <- bed_random(genome, seed = 1010486)
y <- bed_random(genome, seed = 9203911)

bed_absdist(x, y, genome)
#> # A tibble: 1,000,000 × 5
#>    chrom start   end .absdist .absdist_scaled
#>    <chr> <int> <int>    <dbl>           <dbl>
#>  1 chr1   5255  6255    16723           5.39 
#>  2 chr1   7381  8381    14597           4.70 
#>  3 chr1  13993 14993     7985           2.57 
#>  4 chr1  14102 15102     7876           2.54 
#>  5 chr1  14273 15273     7705           2.48 
#>  6 chr1  16621 17621     5357           1.73 
#>  7 chr1  17724 18724     4254           1.37 
#>  8 chr1  22801 23801      823           0.265
#>  9 chr1  30996 31996     1379           0.444
#> 10 chr1  41948 42948      954           0.307
#> # … with 999,990 more rows
…
