…
## Examples

``` r
genome <- tibble::tribble(
  ~chrom, ~size,
  "chr1", 1e6,
  "chr2", 2e6,
  "chr3", 4e6
)

x <- bed_random(genome, seed = 1010486)

bed_shuffle(x, genome, seed = 9830491)
#> # A tibble: 1,000,000 × 3
#>    chrom   start     end
#>    <chr>   <int>   <int>
#>  1 chr2  1463822 1464822
#>  2 chr2   619967  620967
#>  3 chr2  1769865 1770865
#>  4 chr2   203953  204953
#>  5 chr3  2119387 2120387
#>  6 chr2  1216667 1217667
#>  7 chr3  2109652 2110652
#>  8 chr2   213473  214473
#>  9 chr1   154156  155156
#> 10 chr3  2201278 2202278
#> # ℹ 999,990 more rows
```
