…
## Examples

``` r
genome <- read_genome(valr_example("hg19.chrom.sizes.gz"))

x <- bed_random(genome, seed = 1010486)
y <- bed_random(genome, seed = 9203911)

bed_absdist(x, y, genome)
#> # A tibble: 1,000,000 × 5
#>    chrom start   end .absdist .absdist_scaled
#>    <chr> <dbl> <dbl>    <dbl>           <dbl>
#>  1 chr1   5184  6184     1392           0.448
#>  2 chr1   7663  8663     1087           0.350
#>  3 chr1   9858 10858     1526           0.491
#>  4 chr1  13805 14805     2421           0.779
#>  5 chr1  14081 15081     2697           0.868
#>  6 chr1  16398 17398     1700           0.547
#>  7 chr1  17486 18486      612           0.197
#>  8 chr1  22063 23063      466           0.150
#>  9 chr1  22494 23494      897           0.289
#> 10 chr1  29351 30351     1143           0.368
#> # ℹ 999,990 more rows
```
