bed_random. valr 0.1
…
    Examples

genome <- tibble::frame_data(
  ~chrom,  ~size,
  "chr1",  10000000,
  "chr2",  50000000,
  "chr3",  60000000,
  "chrX",  5000000
)

# random intervals (unsorted)
bed_random(genome)

# A tibble: 1,000,000 × 3
   chrom    start      end
   <chr>    <int>    <int>
1   chr2 17321713 17322713
2   chr1  7153736  7154736
3   chr3 22078711 22079711
4   chr3 45782441 45783441
5   chr3 35811482 35812482
6   chr3 27634562 27635562
7   chr2 15906566 15907566
8   chr3 58040744 58041744
9   chr3 48107783 48108783
10  chr3  5862100  5863100
# ... with 999,990 more rows

# 500 random intervals of length 500 
bed_random(genome, length = 500, n = 500)

# A tibble: 500 × 3
   chrom    start      end
   <chr>    <int>    <int>
1   chr2 44731218 44731718
2   chr2 37207144 37207644
3   chr3 10037381 10037881
4   chr2  1441232  1441732
5   chr3 27830900 27831400
6   chr3 15477528 15478028
7   chr3 41375560 41376060
8   chr2 33620298 33620798
9   chr3 53832424 53832924
10  chr3  8525307  8525807
# ... with 490 more rows

# reproducible random intervals
bed_random(genome, seed = 2016)

# A tibble: 1,000,000 × 3
   chrom    start      end
   <chr>    <int>    <int>
1   chr3 49345803 49346803
2   chr3 51581437 51582437
3   chr3 38506508 38507508
4   chr3 27585452 27586452
5   chr2 23285708 23286708
6   chr3 15969770 15970770
7   chr1  7865844  7866844
8   chr2 29877474 29878474
9   chr2 42468499 42469499
10  chr3  5370595  5371595
# ... with 999,990 more rows
…
