read_genome. valr 0.1
…
      Description

      Genome files contain chromosome name and size information. These sizes are 
used by downstream functions to identify computed intervals that have ends
outside the defined size.

      Select intervals bounded by a genome.

    Examples

genome <- system.file('extdata', 'hg19.chrom.sizes.gz', package = 'valr')
read_genome(genome)

# A tibble: 25 × 2
   chrom      size
   <chr>     <int>
1   chr1 249250621
2   chr2 243199373
3   chr3 198022430
4   chr4 191154276
5   chr5 180915260
6   chr6 171115067
7   chr7 159138663
8   chrX 155270560
9   chr8 146364022
10  chr9 141213431
# ... with 15 more rows

read_genome('https://genome.ucsc.edu/goldenpath/help/hg19.chrom.sizes')

# A tibble: 93 × 2
   chrom      size
   <chr>     <int>
1   chr1 249250621
2   chr2 243199373
3   chr3 198022430
4   chr4 191154276
5   chr5 180915260
6   chr6 171115067
7   chr7 159138663
8   chrX 155270560
9   chr8 146364022
10  chr9 141213431
# ... with 83 more rows
…
