valr examples • valr
…
# 1000 bp up and downstream
region_size <- 1000
# 50 bp windows
win_size <- 50

# add slop to the TSS, break into windows
x <- tss %>%
  bed_slop(genome, both = region_size) %>%
  bed_makewindows(genome, win_size)

x
#> # A tibble: 13,530 × 7
#>    chrom    start      end      name score strand .win_id
#>    <chr>    <dbl>    <dbl>     <chr> <chr>  <chr>   <dbl>
#> 1  chr22 16161065 16161115 LINC00516     3      +       1
#> 2  chr22 16161115 16161165 LINC00516     3      +       2
#> 3  chr22 16161165 16161215 LINC00516     3      +       3
#> 4  chr22 16161215 16161265 LINC00516     3      +       4
#> 5  chr22 16161265 16161315 LINC00516     3      +       5
#> 6  chr22 16161315 16161365 LINC00516     3      +       6
#> 7  chr22 16161365 16161415 LINC00516     3      +       7
#> 8  chr22 16161415 16161465 LINC00516     3      +       8
#> 9  chr22 16161465 16161515 LINC00516     3      +       9
#> 10 chr22 16161515 16161565 LINC00516     3      +      10
#> # ... with 13,520 more rows
…
