…
Absolute distance

bed_absdist() computes the absolute distance between the midpoint of query intervals and the closest midpoints of a set of reference intervals. Absolute distances are scaled by the inter-reference gap for the chromosome as follows. For Q total query points and R reference points on a chromosome, scale the distance for each query point i to the closest reference point by the inter-reference gap for each chromosome.

\[
d_i(x,y) = min_{\substack{k}}(|q_i - r_k|)\frac{R}{Length\ of\ chromsome}
\]

By default both absolute and scaled distances are reported as absdist and scaled_absdist respectively.

x <- bed_random(genome)
y <- bed_random(genome)

bed_absdist(x, y, genome)
#> # A tibble: 1,000,000 × 5
#>    chrom start   end absdist scaled_absdist
#>    <chr> <int> <int>   <dbl>          <dbl>
#> 1   chr1 10077 11077    2734     0.88601123
#> 2   chr1 17046 18046     114     0.03694414
#> 3   chr1 19914 20914    2689     0.87142802
#> 4   chr1 20560 21560    3335     1.08077815
#> 5   chr1 21432 22432    4207     1.36336842
#> 6   chr1 22578 23578    5353     1.73475425
#> 7   chr1 25684 26684    3926     1.27230435
#> 8   chr1 33263 34263      72     0.02333314
#> 9   chr1 34475 35475     337     0.10921206
#> 10  chr1 35085 36085     273     0.08847149
#> # ... with 999,990 more rows

Relative distance

bed_reldist() computes the relative distance between a query interval and the two closest reference intervals. The relative distance can range between [0, 0.5]. If the overall distribution of distances is biased toward zero, then the query and reference intervals tend to be closer in space. By default a summary with the frequency of each relative distance is reported.

x <- bed_random(genome)
y <- bed_random(genome)

bed_reldist(x, y)
#> # A tibble: 51 × 4
#>    reldist counts  total       freq
#>      <dbl>  <int>  <int>      <dbl>
#> 1     0.00  19568 999951 0.01956896
#> 2     0.01  19944 999951 0.01994498
#> 3     0.02  19789 999951 0.01978997
#> 4     0.03  20104 999951 0.02010499
#> 5     0.04  19795 999951 0.01979597
#> 6     0.05  20179 999951 0.02017999
#> 7     0.06  19962 999951 0.01996298
#> 8     0.07  19958 999951 0.01995898
#> 9     0.08  20105 999951 0.02010599
#> 10    0.09  19946 999951 0.01994698
#> # ... with 41 more rows
…
