valr examples • valr
…
Creating intron intervals

Intron intervals can be identified by calculating:

Intervals that are covered by any gene annotation

Then, intervals that are not covered by exons.

genome <- read_genome(valr_example('hg19.chrom.sizes.gz'))
genes <- read_bed12(valr_example('hg19.refGene.chr22.bed.gz'))

exons <- bed12_to_exons(genes)
exons
#> # A tibble: 11,329 × 6
#>    chrom    start      end      name score strand
#>    <chr>    <dbl>    <dbl>     <chr> <int>  <chr>
#> 1  chr22 16150528 16151821 NR_122113     8      -
#> 2  chr22 16157078 16157342 NR_133911     1      +
#> 3  chr22 16162065 16162388 NR_073459     1      +
#> 4  chr22 16162065 16162388 NR_073460     1      +
#> 5  chr22 16162396 16162487 NR_122113     7      -
#> 6  chr22 16164481 16164569 NR_133911     2      +
#> 7  chr22 16164481 16164569 NR_073459     2      +
#> 8  chr22 16164481 16164569 NR_073460     2      +
#> 9  chr22 16171951 16172265 NR_133911     3      +
#> 10 chr22 16171951 16172265 NR_073459     3      +
#> # ... with 11,319 more rows

introns <- bed_subtract(genes, exons)
introns
#> # A tibble: 11,383 × 12
#>    chrom    start      end      name score strand cds_start  cds_end
#>    <chr>    <int>    <int>     <chr> <chr>  <chr>     <int>    <int>
#> 1  chr22 16151821 16157078 NR_122113     0      -  16193009 16193009
#> 2  chr22 16157342 16162065 NR_122113     0      -  16193009 16193009
#> 3  chr22 16157342 16162065 NR_133911     0      +  16172265 16172265
#> 4  chr22 16162388 16162396 NR_122113     0      -  16193009 16193009
#> 5  chr22 16162388 16162396 NR_133911     0      +  16172265 16172265
#> 6  chr22 16162388 16162396 NR_073459     0      +  16172265 16172265
#> 7  chr22 16162388 16162396 NR_073460     0      +  16172265 16172265
#> 8  chr22 16162487 16164481 NR_122113     0      -  16193009 16193009
#> 9  chr22 16162487 16164481 NR_133911     0      +  16172265 16172265
#> 10 chr22 16162487 16164481 NR_073459     0      +  16172265 16172265
#> # ... with 11,373 more rows, and 4 more variables: item_rgb <chr>,
#> #   exon_count <int>, exon_sizes <chr>, exon_starts <chr>
…
n <- 100

shuffled <- replicate(n, bed_shuffle(exons, genome), FALSE) %>% 
  bind_rows(.id = "rep") %>%
  group_by(rep) %>%
  nest()  %>% 
  mutate(jaccard = data %>% map(bed_jaccard, exons) %>% map_dbl("jaccard"),
         fisher = data %>% map(bed_fisher, exons, genome) %>% map_dbl("p.value"),
         rel_dist = data %>% map(bed_reldist, exons, detail = TRUE)
         )
shuffled
#> # A tibble: 100 × 5
#>      rep               data      jaccard       fisher          rel_dist
#>    <chr>             <list>        <dbl>        <dbl>            <list>
#> 1      1 <tibble [732 × 6]> 0.0000000000 0.0001082321  <tibble [2 × 7]>
#> 2      2 <tibble [732 × 6]> 0.0038549575 0.0958268386 <tibble [13 × 7]>
#> 3      3 <tibble [732 × 6]> 0.0023373497 0.6183107710  <tibble [8 × 7]>
#> 4      4 <tibble [732 × 6]> 0.0006344275 0.7432567268  <tibble [8 × 7]>
#> 5      5 <tibble [732 × 6]> 0.0041388114 0.5111214412 <tibble [11 × 7]>
#> 6      6 <tibble [732 × 6]> 0.0012268115 0.7432542171  <tibble [4 × 7]>
#> 7      7 <tibble [732 × 6]> 0.0057756659 0.0956472462 <tibble [10 × 7]>
#> 8      8 <tibble [732 × 6]> 0.0023939115 0.1846070187  <tibble [3 × 7]>
#> 9      9 <tibble [732 × 6]> 0.0005914611 0.1845055632  <tibble [7 × 7]>
#> 10    10 <tibble [732 × 6]> 0.0002904076 0.0076256561  <tibble [1 × 7]>
#> # ... with 90 more rows
…
# 1000 bp up and downstream
region_size <- 1000
# 50 bp windows
win_size <- 50

# add slop to the TSS, break into windows and add a group
x <- tss %>%
  bed_slop(genome, both = region_size) %>%
  bed_makewindows(genome, win_size) %>%
  group_by(.win_id)

x
#> Source: local data frame [13,530 x 7]
#> Groups: .win_id [41]
#> 
#>    chrom    start      end      name score strand .win_id
#>    <chr>    <dbl>    <dbl>     <chr> <chr>  <chr>   <dbl>
#> 1  chr22 16161065 16161115 LINC00516     3      +       1
#> 2  chr22 16161115 16161165 LINC00516     3      +       2
#> 3  chr22 16161165 16161215 LINC00516     3      +       3
#> 4  chr22 16161215 16161265 LINC00516     3      +       4
#> 5  chr22 16161265 16161315 LINC00516     3      +       5
#> 6  chr22 16161315 16161365 LINC00516     3      +       6
#> 7  chr22 16161365 16161415 LINC00516     3      +       7
#> 8  chr22 16161415 16161465 LINC00516     3      +       8
#> 9  chr22 16161465 16161515 LINC00516     3      +       9
#> 10 chr22 16161515 16161565 LINC00516     3      +      10
#> # ... with 13,520 more rows
…
