…
bed_slop(): Expand the size of input intervals

bed_shift(): Shift the coordinates of an input set, bounded by a genome

Sort

bed_sort orders intervals based on a specification. is_sorted asks whether a tbl is already sorted.

x <- bed_random(genome_human)
is_sorted(x)
#> [1] FALSE

y <- bed_sort(x)
y
#> # A tibble: 1,000,000 × 3
#>    chrom start   end
#>    <chr> <int> <int>
#> 1   chr1  5013  6013
#> 2   chr1  7141  8141
#> 3   chr1  7598  8598
#> 4   chr1 10256 11256
#> 5   chr1 12514 13514
#> 6   chr1 12912 13912
#> 7   chr1 13156 14156
#> 8   chr1 17374 18374
#> 9   chr1 26036 27036
#> 10  chr1 29659 30659
#> # ... with 999,990 more rows
…
x <- bed_random(genome_human)
y <- bed_cluster(x, max_dist = 1000)
y
#> # A tibble: 1,000,000 × 4
#>    chrom     start       end   .id
#>    <chr>     <int>     <int> <int>
#> 1   chr9  22753037  22754037  7328
#> 2   chr3 131715169 131716169 42400
#> 3   chr4  89578351  89579351 28732
#> 4   chr5 136168027 136169027 43785
#> 5   chr3 150508207 150509207 48566
#> 6   chr1  50344463  50345463 16247
#> 7   chr7 107772322 107773322 34608
#> 8   chr8 115674629 115675629 37674
#> 9   chrY  28974494  28975494  9300
#> 10 chr20  24417930  24418930  7886
#> # ... with 999,990 more rows
…
x <- bed_random(genome_human)

bed_complement(x, genome_human)
#> # A tibble: 724,411 × 3
#>    chrom start   end
#>    <chr> <dbl> <int>
#> 1   chr1     1 10295
#> 2   chr1 11295 14420
#> 3   chr1 15420 20055
#> 4   chr1 21055 29774
#> 5   chr1 30774 31917
#> 6   chr1 32917 34631
#> 7   chr1 35631 35937
#> 8   chr1 37769 41305
#> 9   chr1 42305 42676
#> 10  chr1 43760 44603
#> # ... with 724,401 more rows
…
n <- 1e6
x <- bed_random(genome_human, n = n)
is_merged(x)
#> [1] FALSE

# add some signal
x <- x %>% mutate(signal = runif(n))

bed_merge(x, maxs = max(signal))
#> # A tibble: 723,485 × 4
#>    chrom start   end signal
#>    <chr> <int> <int>  <chr>
#> 1   chr1  1842  2842      .
#> 2   chr1  3671  4671      .
#> 3   chr1  5936  6936      .
#> 4   chr1 11170 12170      .
#> 5   chr1 20655 21655      .
#> 6   chr1 22516 24516      .
#> 7   chr1 26634 27634      .
#> 8   chr1 29170 30170      .
#> 9   chr1 35352 36393      .
#> 10  chr1 37783 38783      .
#> # ... with 723,475 more rows
…
Interval spacing

Interval spacing is easily computed using dplyr. Overlapping intervals must first be merged. Spacing for the first interval of each chromosome is undefined.

x <- bed_random(genome_human)
x <- bed_merge(x)

x %>%
  group_by(chrom) %>%
  mutate(.spacing = start - lag(end))
#> Source: local data frame [723,348 x 4]
#> Groups: chrom [25]
#> 
#>    chrom start   end .spacing
#>    <chr> <int> <int>    <int>
#> 1   chr1   100  1100       NA
#> 2   chr1  3426  4426     2326
#> 3   chr1  5880  6880     1454
#> 4   chr1  7069  8069      189
#> 5   chr1  8230  9280      161
#> 6   chr1 13183 14183     3903
#> 7   chr1 18418 19418     4235
#> 8   chr1 23828 24828     4410
#> 9   chr1 25372 26372      544
#> 10  chr1 30283 32145     3911
#> # ... with 723,338 more rows
…
# intersect two sets of 1e6 intervals from hg19
x <- bed_random(genome_human)
y <- bed_random(genome_human)

bed_intersect(x, y)
#> # A tibble: 645,764 × 6
#>    chrom start.x end.x start.y end.y .overlap
#>    <chr>   <int> <int>   <int> <int>    <int>
#> 1   chr1    8225  9225    8453  9453      772
#> 2   chr1   15610 16610   15202 16202      592
#> 3   chr1   15974 16974   15202 16202      228
#> 4   chr1   19249 20249   19568 20568      681
#> 5   chr1   23822 24822   24171 25171      651
#> 6   chr1   24374 25374   24171 25171      797
#> 7   chr1   43117 44117   42857 43857      740
#> 8   chr1   45206 46206   45160 46160      954
#> 9   chr1   51639 52639   52550 53550       89
#> 10  chr1   52820 53820   52550 53550      730
#> # ... with 645,754 more rows

# A records with no overlaps (i.e., `-v`)
bed_intersect(x, y, invert = TRUE)
#> # A tibble: 524,364 × 3
#>    chrom    start      end
#>    <chr>    <int>    <int>
#> 1   chrY 59362122 59363122
#> 2   chrY 59359267 59360267
#> 3   chrY 59353251 59354251
#> 4   chrY 59352052 59353052
#> 5   chrY 59339447 59340447
#> 6   chrY 59339140 59340140
#> 7   chrY 59338220 59339220
#> 8   chrY 59338170 59339170
#> 9   chrY 59331219 59332219
#> 10  chrY 59320202 59321202
#> # ... with 524,354 more rows

One can achieve behaviour similar to BEDtools by combining bed_intersect with dplyr tools.

# `x` records with overlaps (i.e., `-wa`)
bed_intersect(x, y) %>% select(chrom, start = start.x, end = end.x)
#> # A tibble: 645,764 × 3
#>    chrom start   end
#>    <chr> <int> <int>
#> 1   chr1  8225  9225
#> 2   chr1 15610 16610
#> 3   chr1 15974 16974
#> 4   chr1 19249 20249
#> 5   chr1 23822 24822
#> 6   chr1 24374 25374
#> 7   chr1 43117 44117
#> 8   chr1 45206 46206
#> 9   chr1 51639 52639
#> 10  chr1 52820 53820
#> # ... with 645,754 more rows

# `y` records with overlaps (i.e., `-wb`)
bed_intersect(x, y) %>% select(chrom, start = start.y, end = end.y)
#> # A tibble: 645,764 × 3
#>    chrom start   end
#>    <chr> <int> <int>
#> 1   chr1  8453  9453
#> 2   chr1 15202 16202
#> 3   chr1 15202 16202
#> 4   chr1 19568 20568
#> 5   chr1 24171 25171
#> 6   chr1 24171 25171
#> 7   chr1 42857 43857
#> 8   chr1 45160 46160
#> 9   chr1 52550 53550
#> 10  chr1 52550 53550
#> # ... with 645,754 more rows

# Unique records in `x` (i.e., `-u`)
bed_intersect(x, y) %>% select(chrom, start = start.x, end = end.x) %>% unique()
#> # A tibble: 475,548 × 3
#>    chrom start   end
#>    <chr> <int> <int>
#> 1   chr1  8225  9225
#> 2   chr1 15610 16610
#> 3   chr1 15974 16974
#> 4   chr1 19249 20249
#> 5   chr1 23822 24822
#> 6   chr1 24374 25374
#> 7   chr1 43117 44117
#> 8   chr1 45206 46206
#> 9   chr1 51639 52639
#> 10  chr1 52820 53820
#> # ... with 475,538 more rows

# Count `y` intervals that intersect each `x` interval
bed_intersect(x, y) %>% group_by(chrom, start.x, end.x) %>% summarize(count = n())
#> Source: local data frame [475,548 x 4]
#> Groups: chrom, start.x [?]
#> 
#>    chrom start.x end.x count
#>    <chr>   <int> <int> <int>
#> 1   chr1    8225  9225     1
#> 2   chr1   15610 16610     1
#> 3   chr1   15974 16974     1
#> 4   chr1   19249 20249     1
#> 5   chr1   23822 24822     1
#> 6   chr1   24374 25374     1
#> 7   chr1   43117 44117     1
#> 8   chr1   45206 46206     1
#> 9   chr1   51639 52639     1
#> 10  chr1   52820 53820     2
#> # ... with 475,538 more rows
…
bedfile <- valr_example('genes.hg19.chr22.bed.gz')
bgfile  <- valr_example('hela.h3k4.chip.bg.gz')

x <- read_bed(bedfile, n_fields = 6)
y <- read_bedgraph(bgfile)

bed_map(x, y, means = mean(value), sds = sd(value))
#> # A tibble: 730 × 8
#>    chrom    start      end    means      sds     name score strand
#>    <chr>    <int>    <int>    <dbl>    <dbl>    <chr> <chr>  <chr>
#> 1  chr22 16150259 16193004 7.914286 7.570731     <NA>  <NA>   <NA>
#> 2  chr22 16162065 16172265 1.000000       NA     <NA>  <NA>   <NA>
#> 3  chr22 16179617 16181004       NA       NA BC017398     1      -
#> 4  chr22 16239287 16239327       NA       NA DQ590589     1      +
#> 5  chr22 16240245 16240277       NA       NA DQ573684     1      -
#> 6  chr22 16240300 16240340       NA       NA DQ595048     1      -
#> 7  chr22 16241085 16241125       NA       NA DQ590589     1      +
#> 8  chr22 16242753 16242785       NA       NA DQ573684     1      -
#> 9  chr22 16243382 16243414       NA       NA DQ573684     1      -
#> 10 chr22 16243447 16243487       NA       NA DQ587539     1      -
#> # ... with 720 more rows
…
x <- bed_random(genome_human)
y <- bed_random(genome_human)

bed_subtract(x, y)
#> # A tibble: 957,540 × 3
#>    chrom start   end
#>    <chr> <int> <int>
#> 1   chr1   452  1452
#> 2   chr1  1223  2223
#> 3   chr1  6806  7567
#> 4   chr1  7168  7567
#> 5   chr1  8567  8919
#> 6   chr1 13070 13738
#> 7   chr1 15771 16771
#> 8   chr1 20913 21304
#> 9   chr1 22645 23645
#> 10  chr1 29131 29476
#> # ... with 957,530 more rows
…
x <- bed_random(genome_human, n = 100)
y <- bed_random(genome_human, n = 100)

bed_closest(x, y)
#> # A tibble: 98 × 7
#>    chrom   start.x     end.x   start.y     end.y .overlap .distance
#>    <chr>     <int>     <int>     <int>     <int>    <int>     <int>
#> 1   chr1  14714752  14715752  14056671  14057671        0   -657081
#> 2   chr1  43935036  43936036  46067807  46068807        0   2131771
#> 3   chr1  54517016  54518016  46067807  46068807        0  -8448209
#> 4   chr1  81312928  81313928  81793362  81794362        0    479434
#> 5   chr1  82009400  82010400  81793362  81794362        0   -215038
#> 6   chr1 119616128 119617128 126469777 126470777        0   6852649
#> 7   chr1 175997140 175998140 173684076 173685076        0  -2312064
#> 8  chr10   1594124   1595124  16933129  16934129        0  15338005
#> 9  chr10   3459689   3460689  16933129  16934129        0  13472440
#> 10 chr11   8563700   8564700   2953228   2954228        0  -5609472
#> # ... with 88 more rows
…
valr provides methods for creating new random intervals or permutations of existing intervals:

bed_random generates random intervals from an input genome.

bed_shuffle shuffles coordinates given a set of input intervals.

Random sampling of input intervals is done with dplyr.

Random

bed_random generates random intervals from an input genome. The numbers of intervals from each chrom are proporitional to each chrom size.

x <- bed_random(genome_human, n = 1e6, length = 1e3)
x
#> # A tibble: 1,000,000 × 3
#>    chrom     start       end
#>    <chr>     <int>     <int>
#> 1   chr4   5996090   5997090
#> 2   chr1 114018912 114019912
#> 3  chr12  98743840  98744840
#> 4   chr8  72057836  72058836
#> 5   chr7 154595396 154596396
#> 6  chr14  42606402  42607402
#> 7   chr1  12596556  12597556
#> 8  chr19  56249872  56250872
#> 9  chr12  20668622  20669622
#> 10 chr10 134679278 134680278
#> # ... with 999,990 more rows

# numbers of sampled intervals are proportional to chrom size
group_by(x, chrom) %>% summarize(n = n()) %>% arrange(desc(n))
#> # A tibble: 25 × 2
#>    chrom     n
#>    <chr> <int>
#> 1   chr1 81022
#> 2   chr2 78662
#> 3   chr3 64382
#> 4   chr4 61520
#> 5   chr5 58543
#> 6   chr6 55343
#> 7   chr7 51082
#> 8   chrX 50223
#> 9   chr8 47165
#> 10  chr9 45638
#> # ... with 15 more rows

Sample

Sampling can be done using dplyr:

x <- bed_random(genome_human)

# sample by number
sample_n(x, 1e3, replace = FALSE)
#> # A tibble: 1,000 × 3
#>    chrom     start       end
#>    <chr>     <int>     <int>
#> 1  chr11  50058172  50059172
#> 2   chr8  35221753  35222753
#> 3   chrX   4647643   4648643
#> 4   chr6 150346558 150347558
#> 5   chr7 128581398 128582398
#> 6   chr2 213233434 213234434
#> 7  chr12  91415503  91416503
#> 8   chr9  94578657  94579657
#> 9   chr3 117386899 117387899
#> 10  chr5  18809495  18810495
#> # ... with 990 more rows

# or fraction
sample_frac(x, 0.1, replace = FALSE)
#> # A tibble: 100,000 × 3
#>    chrom     start       end
#>    <chr>     <int>     <int>
#> 1  chr16  66037123  66038123
#> 2  chr16   9312032   9313032
#> 3  chr12  76686706  76687706
#> 4   chr9 115777346 115778346
#> 5   chrY  24243985  24244985
#> 6   chrX  72602071  72603071
#> 7   chr8  47000806  47001806
#> 8   chr3 177903558 177904558
#> 9   chr8  45695450  45696450
#> 10 chr13  67478195  67479195
#> # ... with 99,990 more rows

# or sample intervals within groups
group_by(x, chrom) %>% sample_n(1)
#> Source: local data frame [25 x 3]
#> Groups: chrom [25]
#> 
#>    chrom     start       end
#>    <chr>     <int>     <int>
#> 1   chr1 124561857 124562857
#> 2  chr10  91516195  91517195
#> 3  chr11  80843114  80844114
#> 4  chr12  50609244  50610244
#> 5  chr13  48655053  48656053
#> 6  chr14  58019341  58020341
#> 7  chr15 101083681 101084681
#> 8  chr16  25023030  25024030
#> 9  chr17  29565844  29566844
#> 10 chr18  34162912  34163912
#> # ... with 15 more rows
…
Other topics

Grouping related intervals

The group_by operation from dplyr serves a similar purpose to BEDtools groupby, and can be combined with dplyr::summarize to calculate summary statistics from groups.

x <- bed_random(genome_human)
y <- bed_random(genome_human)

bed_intersect(x, y) %>%
  group_by(chrom) %>%
  summarize(overlap.total = sum(.overlap))
#> # A tibble: 25 × 2
#>    chrom overlap.total
#>    <chr>         <int>
#> 1   chr1      26061005
#> 2  chr10      14168388
#> 3  chr11      14063707
#> 4  chr12      13961668
#> 5  chr13      12031014
#> 6  chr14      11252334
#> 7  chr15      10545980
#> 8  chr16       9281860
#> 9  chr17       8416537
#> 10 chr18       8077764
#> # ... with 15 more rows
…
Absolute distance

bed_absdist() computes the absolute distance between the midpoint of query intervals and the closest midpoints of a set of reference intervals. Absolute distances are scaled by the inter-reference gap for the chromosome as follows. For Q total query points and R reference points on a chromosome, scale the distance for each query point i to the closest reference point by the inter-reference gap for each chromosome.

\[
d_i(x,y) = min_{\substack{k}}(|q_i - r_k|)\frac{R}{Length\ of\ chromsome}
\]

By default both absolute and scaled distances are reported as absdist and scaled_absdist respectively.

x <- bed_random(genome_human)
y <- bed_random(genome_human)

bed_absdist(x, y, genome_human)
#> # A tibble: 1,000,000 × 5
#>    chrom start   end absdist scaled_absdist
#>    <chr> <int> <int>   <dbl>          <dbl>
#> 1   chr1  2016  3016    2412     0.77782814
#> 2   chr1 11083 12083     149     0.04804991
#> 3   chr1 12535 13535     521     0.16801346
#> 4   chr1 15974 16974     744     0.23992709
#> 5   chr1 16882 17882     271     0.08739280
#> 6   chr1 19906 20906    2612     0.84232467
#> 7   chr1 22151 23151     367     0.11835113
#> 8   chr1 23141 24141     188     0.06062674
#> 9   chr1 23678 24678     349     0.11254644
#> 10  chr1 25217 26217     337     0.10867665
#> # ... with 999,990 more rows

Relative distance

bed_reldist() computes the relative distance between a query interval and the two closest reference intervals. The relative distance can range between [0,0.5]. If the overall distribution of distances is biased toward zero, then the query and reference intervals tend to be closer in space (17). By default a summary with the frequency of each relative distance is reported.

x <- bed_random(genome_human)
y <- bed_random(genome_human)

bed_reldist(x, y)
#> # A tibble: 51 × 4
#>    reldist counts  total       freq
#>      <dbl>  <int>  <int>      <dbl>
#> 1     0.00  20169 999948 0.02017005
#> 2     0.01  19726 999948 0.01972703
#> 3     0.02  19952 999948 0.01995304
#> 4     0.03  20326 999948 0.02032706
#> 5     0.04  19580 999948 0.01958102
#> 6     0.05  19994 999948 0.01999504
#> 7     0.06  19968 999948 0.01996904
#> 8     0.07  20439 999948 0.02044006
#> 9     0.08  20004 999948 0.02000504
#> 10    0.09  19829 999948 0.01983003
#> # ... with 41 more rows
…
