valr functions • valr
…
bed_slop(): Expand the size of input intervals

bed_shift(): Shift the coordinates of an input set, bounded by a genome

Sort

bed_sort orders intervals based on a specification. is_sorted asks whether a tbl is already sorted.

x <- bed_random(genome_human)
is_sorted(x)
#> [1] FALSE

y <- bed_sort(x)
y
#> # A tibble: 1,000,000 × 3
#>    chrom start   end
#>    <chr> <int> <int>
#> 1   chr1    66  1066
#> 2   chr1  4656  5656
#> 3   chr1  5417  6417
#> 4   chr1  6634  7634
#> 5   chr1  7413  8413
#> 6   chr1  8513  9513
#> 7   chr1 10740 11740
#> 8   chr1 14983 15983
#> 9   chr1 24041 25041
#> 10  chr1 24502 25502
#> # ... with 999,990 more rows
…
x <- bed_random(genome_human)
y <- bed_cluster(x, max_dist = 1000)
y
#> # A tibble: 1,000,000 × 4
#>    chrom     start       end   .id
#>    <chr>     <int>     <int> <int>
#> 1   chrY  40255269  40256269 12956
#> 2   chrX 114616800 114617800 36979
#> 3  chr11  90606200  90607200 29392
#> 4  chr14  13847261  13848261  4415
#> 5  chr18  16493745  16494745  5372
#> 6  chr10 111986816 111987816 36012
#> 7  chr22  27321558  27322558  8822
#> 8   chr3  24123826  24124826  7728
#> 9   chr1  14293757  14294757  4543
#> 10 chr17  12545783  12546783  4137
#> # ... with 999,990 more rows
…
x <- bed_random(genome_human)

bed_complement(x, genome_human)
#> # A tibble: 723,519 × 3
#>    chrom start   end
#>    <chr> <dbl> <int>
#> 1   chr1     1  1082
#> 2   chr1  2737  3034
#> 3   chr1  4034  6695
#> 4   chr1  7695  8164
#> 5   chr1  9164 18193
#> 6   chr1 19193 19528
#> 7   chr1 20528 25371
#> 8   chr1 26371 28625
#> 9   chr1 29957 30876
#> 10  chr1 31876 34600
#> # ... with 723,509 more rows
…
n <- 1e6
x <- bed_random(genome_human, n = n)
is_merged(x)
#> [1] FALSE

# add some signal
x <- x %>% mutate(signal = runif(n))

bed_merge(x, maxs = max(signal))
#> # A tibble: 723,621 × 4
#>    chrom start   end signal
#>    <chr> <int> <int>  <chr>
#> 1   chr1  1566  2566      .
#> 2   chr1  2733  4715      .
#> 3   chr1  5187  6187      .
#> 4   chr1  7309  8516      .
#> 5   chr1  9356 11005      .
#> 6   chr1 12246 14095      .
#> 7   chr1 17052 18052      .
#> 8   chr1 23445 25381      .
#> 9   chr1 30931 31931      .
#> 10  chr1 34958 36781      .
#> # ... with 723,611 more rows
…
Interval spacing

Interval spacing is easily computed using dplyr. Overlapping intervals must first be merged. Spacing for the first interval of each chromosome is undefined.

x <- bed_random(genome_human)
x <- bed_merge(x)

x %>%
  group_by(chrom) %>%
  mutate(.spacing = start - lag(end))
#> Source: local data frame [723,957 x 4]
#> Groups: chrom [25]
#> 
#>    chrom start   end .spacing
#>    <chr> <int> <int>    <int>
#> 1   chr1  1116  2116       NA
#> 2   chr1  5555  6555     3439
#> 3   chr1 10991 11991     4436
#> 4   chr1 12005 13371       14
#> 5   chr1 14392 16224     1021
#> 6   chr1 16420 17420      196
#> 7   chr1 20708 21708     3288
#> 8   chr1 24605 25605     2897
#> 9   chr1 25671 26671       66
#> 10  chr1 27553 28807      882
#> # ... with 723,947 more rows
…
# intersect two sets of 1e6 intervals from hg19
x <- bed_random(genome_human)
y <- bed_random(genome_human)

bed_intersect(x, y)
#> # A tibble: 646,013 × 6
#>    chrom start.x end.x start.y end.y .overlap
#>    <chr>   <int> <int>   <int> <int>    <int>
#> 1   chr1   13760 14760   13572 14572      812
#> 2   chr1   13760 14760   14175 15175      585
#> 3   chr1   13760 14760   14543 15543      217
#> 4   chr1   15117 16117   14175 15175       58
#> 5   chr1   15117 16117   14543 15543      426
#> 6   chr1   15214 16214   14543 15543      329
#> 7   chr1   33426 34426   32853 33853      427
#> 8   chr1   33813 34813   32853 33853       40
#> 9   chr1   50899 51899   51400 52400      499
#> 10  chr1   53221 54221   52747 53747      526
#> # ... with 646,003 more rows

# A records with no overlaps (i.e., `-v`)
bed_intersect(x, y, invert = TRUE)
#> # A tibble: 523,930 × 3
#>    chrom    start      end
#>    <chr>    <int>    <int>
#> 1   chrY 59369894 59370894
#> 2   chrY 59343947 59344947
#> 3   chrY 59339555 59340555
#> 4   chrY 59336845 59337845
#> 5   chrY 59330509 59331509
#> 6   chrY 59323701 59324701
#> 7   chrY 59310330 59311330
#> 8   chrY 59308329 59309329
#> 9   chrY 59298269 59299269
#> 10  chrY 59293786 59294786
#> # ... with 523,920 more rows

One can achieve behaviour similar to BEDtools by combining bed_intersect with dplyr tools.

# `x` records with overlaps (i.e., `-wa`)
bed_intersect(x, y) %>% select(chrom, start = start.x, end = end.x)
#> # A tibble: 646,013 × 3
#>    chrom start   end
#>    <chr> <int> <int>
#> 1   chr1 13760 14760
#> 2   chr1 13760 14760
#> 3   chr1 13760 14760
#> 4   chr1 15117 16117
#> 5   chr1 15117 16117
#> 6   chr1 15214 16214
#> 7   chr1 33426 34426
#> 8   chr1 33813 34813
#> 9   chr1 50899 51899
#> 10  chr1 53221 54221
#> # ... with 646,003 more rows

# `y` records with overlaps (i.e., `-wb`)
bed_intersect(x, y) %>% select(chrom, start = start.y, end = end.y)
#> # A tibble: 646,013 × 3
#>    chrom start   end
#>    <chr> <int> <int>
#> 1   chr1 13572 14572
#> 2   chr1 14175 15175
#> 3   chr1 14543 15543
#> 4   chr1 14175 15175
#> 5   chr1 14543 15543
#> 6   chr1 14543 15543
#> 7   chr1 32853 33853
#> 8   chr1 32853 33853
#> 9   chr1 51400 52400
#> 10  chr1 52747 53747
#> # ... with 646,003 more rows

# Unique records in `x` (i.e., `-u`)
bed_intersect(x, y) %>% select(chrom, start = start.x, end = end.x) %>% unique()
#> # A tibble: 475,993 × 3
#>    chrom  start    end
#>    <chr>  <int>  <int>
#> 1   chr1  13760  14760
#> 2   chr1  15117  16117
#> 3   chr1  15214  16214
#> 4   chr1  33426  34426
#> 5   chr1  33813  34813
#> 6   chr1  50899  51899
#> 7   chr1  53221  54221
#> 8   chr1  61934  62934
#> 9   chr1  91859  92859
#> 10  chr1 129346 130346
#> # ... with 475,983 more rows

# Count `y` intervals that intersect each `x` interval
bed_intersect(x, y) %>% group_by(chrom, start.x, end.x) %>% summarize(count = n())
#> Source: local data frame [475,993 x 4]
#> Groups: chrom, start.x [?]
#> 
#>    chrom start.x  end.x count
#>    <chr>   <int>  <int> <int>
#> 1   chr1   13760  14760     3
#> 2   chr1   15117  16117     2
#> 3   chr1   15214  16214     1
#> 4   chr1   33426  34426     1
#> 5   chr1   33813  34813     1
#> 6   chr1   50899  51899     1
#> 7   chr1   53221  54221     1
#> 8   chr1   61934  62934     1
#> 9   chr1   91859  92859     1
#> 10  chr1  129346 130346     1
#> # ... with 475,983 more rows
…
bedfile <- valr_example('genes.hg19.chr22.bed.gz')
bgfile  <- valr_example('hela.h3k4.chip.bg.gz')

x <- read_bed(bedfile, n_fields = 6)
y <- read_bedgraph(bgfile)

bed_map(x, y, means = mean(value), sds = sd(value))
#> # A tibble: 731 × 8
#>    chrom    start      end    means      sds      name score strand
#>    <chr>    <int>    <int>    <dbl>    <dbl>     <chr> <chr>  <chr>
#> 1  chr22 16150259 16193004 17.54545 5.145165      <NA>  <NA>   <NA>
#> 2  chr22 16162065 16172265       NA       NA LINC00516     3      +
#> 3  chr22 16179617 16181004       NA       NA  BC017398     1      -
#> 4  chr22 16239287 16239327       NA       NA  DQ590589     1      +
#> 5  chr22 16240245 16240277       NA       NA  DQ573684     1      -
#> 6  chr22 16240300 16240340       NA       NA  DQ595048     1      -
#> 7  chr22 16241085 16241125       NA       NA  DQ590589     1      +
#> 8  chr22 16242753 16242785       NA       NA  DQ573684     1      -
#> 9  chr22 16243382 16243414       NA       NA  DQ573684     1      -
#> 10 chr22 16243447 16243487       NA       NA  DQ587539     1      -
#> # ... with 721 more rows
…
x <- bed_random(genome_human)
y <- bed_random(genome_human)

bed_subtract(x, y)
#> # A tibble: 957,701 × 3
#>    chrom start   end
#>    <chr> <int> <int>
#> 1   chr1  7040  7996
#> 2   chr1  7392  8392
#> 3   chr1  8164  8762
#> 4   chr1 13154 13412
#> 5   chr1 17755 18755
#> 6   chr1 24535 25297
#> 7   chr1 25436 26436
#> 8   chr1 26102 27102
#> 9   chr1 34984 35984
#> 10  chr1 35118 36118
#> # ... with 957,691 more rows
…
x <- bed_random(genome_human, n = 100)
y <- bed_random(genome_human, n = 100)

bed_closest(x, y)
#> # A tibble: 99 × 7
#>    chrom   start.x     end.x   start.y     end.y .overlap .distance
#>    <chr>     <int>     <int>     <int>     <int>    <int>     <int>
#> 1   chr1   3432167   3433167  23931737  23932737        0  20498570
#> 2   chr1 105290625 105291625 148327644 148328644        0  43036019
#> 3   chr1 127112748 127113748 148327644 148328644        0  21213896
#> 4   chr1 154617250 154618250 148327644 148328644        0  -6288606
#> 5   chr1 193731855 193732855 185859168 185860168        0  -7871687
#> 6  chr10    337927    338927  58589860  58590860        0  58250933
#> 7  chr10  24206254  24207254  58589860  58590860        0  34382606
#> 8  chr10  60629142  60630142  58589860  58590860        0  -2038282
#> 9  chr10  72515059  72516059  58589860  58590860        0 -13924199
#> 10 chr10 112137661 112138661 113592013 113593013        0   1453352
#> # ... with 89 more rows
…
valr provides methods for creating new random intervals or permutations of existing intervals:

bed_random generates random intervals from an input genome.

bed_shuffle shuffles coordinates given a set of input intervals.

Random sampling of input intervals is done with dplyr.

Random

bed_random generates random intervals from an input genome. The numbers of intervals from each chrom are proporitional to each chrom size.

x <- bed_random(genome_human, n = 1e6, length = 1e3)
x
#> # A tibble: 1,000,000 × 3
#>    chrom     start       end
#>    <chr>     <int>     <int>
#> 1  chr18  59380095  59381095
#> 2   chrY  54435350  54436350
#> 3   chr3 117104941 117105941
#> 4  chr16  39394526  39395526
#> 5   chrX  50042047  50043047
#> 6  chr10   4248833   4249833
#> 7   chr1 133272167 133273167
#> 8  chr14  33757238  33758238
#> 9  chr17   7143286   7144286
#> 10 chr15  22813856  22814856
#> # ... with 999,990 more rows

# numbers of sampled intervals are proportional to chrom size
group_by(x, chrom) %>% summarize(n = n()) %>% arrange(desc(n))
#> # A tibble: 25 × 2
#>    chrom     n
#>    <chr> <int>
#> 1   chr1 80719
#> 2   chr2 78744
#> 3   chr3 64003
#> 4   chr4 61155
#> 5   chr5 57821
#> 6   chr6 55244
#> 7   chr7 51514
#> 8   chrX 50450
#> 9   chr8 47107
#> 10  chr9 45661
#> # ... with 15 more rows

Sample

Sampling can be done using dplyr:

x <- bed_random(genome_human)

# sample by number
sample_n(x, 1e3, replace = FALSE)
#> # A tibble: 1,000 × 3
#>    chrom     start       end
#>    <chr>     <int>     <int>
#> 1   chr3  29623667  29624667
#> 2   chr8  97753870  97754870
#> 3   chr5  97075421  97076421
#> 4   chrX  98403594  98404594
#> 5  chr10  84565578  84566578
#> 6  chr22  28534134  28535134
#> 7  chr18  56116551  56117551
#> 8  chr16   3416964   3417964
#> 9   chr7  26813243  26814243
#> 10  chr1 135611261 135612261
#> # ... with 990 more rows

# or fraction
sample_frac(x, 0.1, replace = FALSE)
#> # A tibble: 100,000 × 3
#>    chrom     start       end
#>    <chr>     <int>     <int>
#> 1  chr11  90507593  90508593
#> 2  chr10  70908702  70909702
#> 3   chr3 135969981 135970981
#> 4  chr11  59038625  59039625
#> 5  chr16  60966449  60967449
#> 6  chr12 120374172 120375172
#> 7   chr9  89611071  89612071
#> 8   chr3  56921560  56922560
#> 9  chr11  64363912  64364912
#> 10  chrX  84585454  84586454
#> # ... with 99,990 more rows

# or sample intervals within groups
group_by(x, chrom) %>% sample_n(1)
#> Source: local data frame [25 x 3]
#> Groups: chrom [25]
#> 
#>    chrom     start       end
#>    <chr>     <int>     <int>
#> 1   chr1 155608945 155609945
#> 2  chr10 114814487 114815487
#> 3  chr11  45974752  45975752
#> 4  chr12  41555996  41556996
#> 5  chr13   2869940   2870940
#> 6  chr14  39367068  39368068
#> 7  chr15  44976112  44977112
#> 8  chr16  41496382  41497382
#> 9  chr17  79870325  79871325
#> 10 chr18  55477233  55478233
#> # ... with 15 more rows
…
Other topics

Grouping related intervals

The group_by operation from dplyr serves a similar purpose to BEDtools groupby, and can be combined with dplyr::summarize to calculate summary statistics from groups.

x <- bed_random(genome_human)
y <- bed_random(genome_human)

bed_intersect(x, y) %>%
  group_by(chrom) %>%
  summarize(overlap.total = sum(.overlap))
#> # A tibble: 25 × 2
#>    chrom overlap.total
#>    <chr>         <int>
#> 1   chr1      25777694
#> 2  chr10      14149118
#> 3  chr11      14067378
#> 4  chr12      13692246
#> 5  chr13      11917205
#> 6  chr14      11068235
#> 7  chr15      10746125
#> 8  chr16       9279278
#> 9  chr17       8644511
#> 10 chr18       8316606
#> # ... with 15 more rows
…
Absolute distance

bed_absdist() computes the absolute distance between the midpoint of query intervals and the closest midpoints of a set of reference intervals. Absolute distances are scaled by the inter-reference gap for the chromosome as follows. For Q total query points and R reference points on a chromosome, scale the distance for each query point i to the closest reference point by the inter-reference gap for each chromosome.

\[
d_i(x,y) = min_{\substack{k}}(|q_i - r_k|)\frac{R}{Length\ of\ chromsome}
\]

By default both absolute and scaled distances are reported as absdist and scaled_absdist respectively.

x <- bed_random(genome_human)
y <- bed_random(genome_human)

bed_absdist(x, y, genome_human)
#> # A tibble: 1,000,000 × 5
#>    chrom start   end absdist scaled_absdist
#>    <chr> <int> <int>   <dbl>          <dbl>
#> 1   chr1   888  1888    9540     3.09791830
#> 2   chr1  4570  5570    5858     1.90226472
#> 3   chr1  9262 10262    1166     0.37863446
#> 4   chr1 11827 12827     321     0.10423813
#> 5   chr1 19939 20939     262     0.08507910
#> 6   chr1 21477 22477     323     0.10488759
#> 7   chr1 32269 33269    2257     0.73291421
#> 8   chr1 36693 37693     931     0.30232305
#> 9   chr1 38891 39891    3129     1.01607823
#> 10  chr1 49898 50898      63     0.02045795
#> # ... with 999,990 more rows

Relative distance

bed_reldist() computes the relative distance between a query interval and the two closest reference intervals. The relative distance can range between [0,0.5]. If the overall distribution of distances is biased toward zero, then the query and reference intervals tend to be closer in space (17). By default a summary with the frequency of each relative distance is reported.

x <- bed_random(genome_human)
y <- bed_random(genome_human)

bed_reldist(x, y)
#> # A tibble: 51 × 4
#>    reldist counts  total       freq
#>      <dbl>  <int>  <int>      <dbl>
#> 1     0.00  19838 999962 0.01983875
#> 2     0.01  20012 999962 0.02001276
#> 3     0.02  20070 999962 0.02007076
#> 4     0.03  19738 999962 0.01973875
#> 5     0.04  20074 999962 0.02007476
#> 6     0.05  20100 999962 0.02010076
#> 7     0.06  19774 999962 0.01977475
#> 8     0.07  19857 999962 0.01985775
#> 9     0.08  20058 999962 0.02005876
#> 10    0.09  19994 999962 0.01999476
#> # ... with 41 more rows
…
