bed_makewindows. valr
…
# Fixed window size with overlaps
bed_makewindows(x, genome, win_size = 10, step_size = 5)
#> # A tibble: 30 × 7
#>    chrom start   end  name score strand win_id
#>    <chr> <dbl> <dbl> <chr> <chr>  <chr>  <dbl>
#> 1   chr1   100   110     A     .      +      1
#> 2   chr1   105   115     A     .      +      2
#> 3   chr1   110   120     A     .      +      3
#> 4   chr1   115   125     A     .      +      4
#> 5   chr1   120   130     A     .      +      5
#> 6   chr1   125   135     A     .      +      6
#> 7   chr1   130   140     A     .      +      7
#> 8   chr1   135   145     A     .      +      8
#> 9   chr1   140   150     A     .      +      9
#> 10  chr1   145   155     A     .      +     10
#> # ... with 20 more rows
…
