bed_shuffle. valr
…
      http://bedtools.readthedocs.io/en/latest/content/tools/shuffle.html

    Examples

genome <- tibble::tribble(
 ~chrom, ~size,
 "chr1", 1e6,
 "chr2", 2e6,
 "chr3", 4e6
)

x <- bed_random(genome)
bed_shuffle(x, genome)

# A tibble: 1,000,000 × 3
    chrom   start     end
   <fctr>   <int>   <int>
1    chr2 1555560 1556560
2    chr3 3822294 3823294
3    chr2  567924  568924
4    chr3 2353703 2354703
5    chr2  562205  563205
6    chr3  136699  137699
7    chr2 1714252 1715252
8    chr3 3147333 3148333
9    chr3  686082  687082
10   chr3 1281679 1282679
# ... with 999,990 more rows
…
