Compute absolute distances between intervals. — bed_absdist • valr
…
    http://journals.plos.org/ploscompbiol/article?id=10.1371/journal.pcbi.1002529

Other interval statistics: bed_fisher,
  bed_jaccard, bed_projection,
  bed_reldist

    Examples

genome <- read_genome(valr_example('hg19.chrom.sizes.gz'))

x <- bed_random(genome, seed = 1010486)
y <- bed_random(genome, seed = 9203911)

bed_absdist(x, y, genome)
#> # A tibble: 1,000,000 x 5
#>    chrom start   end .absdist .absdist_scaled
#>    <chr> <int> <int>    <dbl>           <dbl>
#>  1 chr1    323  1323      302          0.0977
#>  2 chr1   2032  3032     2011          0.651 
#>  3 chr1   2475  3475     2454          0.794 
#>  4 chr1   2759  3759     2226          0.720 
#>  5 chr1   2766  3766     2219          0.718 
#>  6 chr1   3528  4528     1457          0.471 
#>  7 chr1   8394  9394      207          0.0670
#>  8 chr1   8819  9819      218          0.0705
#>  9 chr1  12963 13963      788          0.255 
#> 10 chr1  24939 25939      270          0.0873
#> # ... with 999,990 more rows
…
