Calculate the Jaccard statistic for two sets of intervals. — bed_jaccard • valr
…
genome <- read_genome(valr_example('hg19.chrom.sizes.gz'))

x <- bed_random(genome, seed = 1010486)
y <- bed_random(genome, seed = 9203911)

bed_jaccard(x, y)
#> # A tibble: 1 x 4
#>       len_i      len_u   jaccard      n
#>       <dbl>      <dbl>     <dbl>  <dbl>
#> 1 236059495 1709233073 0.1602388 399478

# calculate jaccard per chromosome
bed_jaccard(dplyr::group_by(x, chrom),
            dplyr::group_by(y, chrom))
#> # A tibble: 25 x 5
#>    chrom    len_i     len_u   jaccard     n
#>    <chr>    <dbl>     <dbl>     <dbl> <dbl>
#>  1  chr1 19013821 137669498 0.1602437 32087
#>  2 chr10 10471352  75102550 0.1620170 17752
#>  3 chr11 10221596  74407682 0.1592494 17362
#>  4 chr12 10132944  73478730 0.1599624 17078
#>  5 chr13  8912455  64140662 0.1613751 15149
#>  6 chr14  8232867  59341464 0.1610858 13902
#>  7 chr15  7765611  56428414 0.1595800 13143
#>  8 chr16  6833852  49562929 0.1599345 11634
#>  9 chr17  6210996  44901313 0.1605310 10542
#> 10 chr18  5979095  43289534 0.1602526 10113
#> # ... with 15 more rows
…
