read_vcf. valr
…
      Value

      data_frame

      Note

      return value has chrom, start and end columns.
  Interval lengths are the size of the 'REF' field.

    Examples

vcf_file <- valr_example('test.vcf.gz')
read_vcf(vcf_file)
#> # A tibble: 115 × 201
#>    CHROM   POS    ID                                          REF
#>    <int> <int> <chr>                                        <chr>
#> 1      1 10172     .                                       CCCTAA
#> 2      1 10390     . CCCCTAACCCCTAACCCTAACCCTAACCCTAACCCTAACCCTAA
#> 3      1 10397     .                                CCCCTAACCCTAA
#> 4      1 10403     .       ACCCTAACCCTAACCCTAACCCTAACCCTAACCCTAAC
#> 5      1 10409     .             ACCCTAACCCTAACCCTAACCCTAACCCTAAC
#> 6      1 10415     .                   ACCCTAACCCTAACCCTAACCCTAAC
#> 7      1 10421     .                         ACCCTAACCCTAACCCTAAC
#> 8      1 10428     .                                       CCCTAA
#> 9      1 10440     .                                            C
#> 10     1 10478     .                                            C
#> # ... with 105 more rows, and 197 more variables: ALT <chr>, QUAL <dbl>,
#> #   FILTER <chr>, INFO <chr>, FORMAT <chr>, `101976-101976` <chr>,
#> #   `100920-100920` <chr>, `100231-100231` <chr>, `100232-100232` <chr>,
#> #   `100919-100919` <chr>, `101977-101977` <chr>, `100630-100630` <chr>,
#> #   `100640-100640` <chr>, `100631-100631` <chr>, `101583-101583` <chr>,
#> #   `101584-101584` <chr>, `101732-101732` <chr>, `101016-101016` <chr>,
#> #   `101708-101708` <chr>, `101730-101730` <chr>, `101582-101582` <chr>,
#> #   `101731-101731` <chr>, `101809-101809` <chr>, `101653-101653` <chr>,
#> #   `101652-101652` <chr>, `101806-101806` <chr>, `101807-101807` <chr>,
…
