read_genome. valr
…
      Value

      data_frame with colnames chrom and size, sorted
  by size

      data_frame

    Examples

genome <- valr_example('hg19.chrom.sizes.gz')
read_genome(genome)

# A tibble: 25 × 2
   chrom      size
   <chr>     <int>
1   chr1 249250621
2   chr2 243199373
3   chr3 198022430
4   chr4 191154276
5   chr5 180915260
6   chr6 171115067
7   chr7 159138663
8   chrX 155270560
9   chr8 146364022
10  chr9 141213431
# ... with 15 more rows
…
