read_bed. valr
…
# use `is_sorted` 
is_sorted(unsorted_bed_tbl)

[1] FALSE

bed12_path <- valr_example('mm9.bed12.gz')
bed12_tbl <- read_bed12(bed12_path)

bedgraph_path <- valr_example('test.bg.gz')
bedgraph_tbl <- read_bedgraph(bedgraph_path)

narrowpeak_path <- valr_example('sample.narrowPeak.gz')
read_narrowpeak(narrowpeak_path)

# A tibble: 570 × 10
   chrom    start      end  name score strand signal   pvalue qvalue  peak
   <chr>    <int>    <int> <chr> <int>  <chr>  <dbl>    <dbl>  <dbl> <int>
1  chr22 17372940 17373090     .     0      .      4  4.62628     -1    -1
2  chr22 17392200 17392350     .     0      .      5  4.67347     -1    -1
3  chr22 17398400 17398550     .     0      .     10 11.62090     -1    -1
4  chr22 17539180 17539330     .     0      .     21 30.93400     -1    -1
5  chr22 17652440 17652590     .     0      .      6  5.35123     -1    -1
6  chr22 17652780 17652930     .     0      .     12 12.52210     -1    -1
7  chr22 17980800 17980950     .     0      .     12 12.59440     -1    -1
8  chr22 18038260 18038410     .     0      .     29 36.01930     -1    -1
9  chr22 18225280 18225430     .     0      .     21 25.00740     -1    -1
10 chr22 18268020 18268170     .     0      .     14 12.98120     -1    -1
# ... with 560 more rows

broadpeak_path <- valr_example('sample.broadPeak.gz')
read_broadpeak(broadpeak_path)

# A tibble: 1,181 × 9
   chrom    start      end  name score strand    signal pvalue qvalue
   <chr>    <int>    <int> <chr> <int>  <chr>     <dbl>  <dbl>  <dbl>
1  chr22 16847903 16848440     .   503      . 10.530253    2.5     -1
2  chr22 16849452 16851326     .   483      .  9.806790   15.7     -1
3  chr22 16849955 16850086     .  1000      . 32.374499    4.2     -1
4  chr22 16850694 16850924     .   831      . 22.537030    4.9     -1
5  chr22 16852964 16853782     .   499      . 10.369338    6.2     -1
6  chr22 16855065 16855803     .   477      .  9.577821    3.9     -1
7  chr22 16855944 16856974     .   491      . 10.065081    8.5     -1
8  chr22 16857425 16857958     .   505      . 10.609279    2.5     -1
9  chr22 16858284 16858824     .   549      . 12.217043    4.5     -1
10 chr22 16859972 16862024     .   404      .  6.889310    9.3     -1
# ... with 1,171 more rows
…
